Binary Adder Subtractor/fullAdderSubtractor_tb.vcd
$date
	Fri Apr 17 17:19:44 2020
$end
$version
	Icarus Verilog
$end
$timescale
	1ns
$end
$scope module fullAdderSubtractor_tb $end
$var wire 1 ! S $end
$var wire 1 " Cout $end
$var reg 1 # A $end
$var reg 1 $ B $end
$var reg 1 % Cin $end
$scope module UUT $end
$var wire 1 # A $end
$var wire 1 $ B $end
$var wire 1 % Cin $end
$var wire 1 " Cout $end
$var wire 1 ! S $end
$var wire 1 & W $end
$upscope $end
$upscope $end
$enddefinitions $end
#0
$dumpvars
0&
0%
0$
0#
0"
0!
$end
#20
1!
1&
1$
#40
0&
1#
0$
#60
1"
0!
1&
1$
#80
1%
0#
0$
#100
0"
1!
0&
1$
#120
1"
1&
1#
0$
#140
0!
0&
1$
